…
<img src="man/figures/README-unnamed-chunk-6-1.png" width="75%" />

## Data

`ggcute` comes with one data set built in, Nintendo sales as of December
31, 2019:

``` r
nintendo_sales
#> # A tibble: 22 x 3
#>    console         sales_type sales_million
#>    <chr>           <chr>              <dbl>
#>  1 Nintendo Switch Hardware            52.5
#>  2 Nintendo Switch Software           311. 
#>  3 Nintendo 3DS    Hardware            75.7
#>  4 Nintendo 3DS    Software           382. 
#>  5 Wii U           Hardware            13.6
#>  6 Wii U           Software           103. 
#>  7 Wii             Hardware           102. 
#>  8 Wii             Software           921. 
#>  9 Nintendo DS     Hardware           154. 
#> 10 Nintendo DS     Software           949. 
#> # … with 12 more rows
```
